Loading NOEA-NCEP monthly data
…
It may be more instructive to look at some summary statistics. To make this plot a little easier to look at, lets filter it down to just three of the sites.

summaries <- temp_data_unnested %>% 
    mutate(year = lubridate::year(date)) %>% 
    filter(year < 2017) %>% 
    group_by(year, site_id) %>% 
    summarize_at(vars(temp), funs(mean, min, max))
summaries

## Source: local data frame [690 x 5]
## Groups: year [?]
## 
##     year site_id     mean    min    max
##    <dbl>   <dbl>    <dbl>  <dbl>  <dbl>
## 1   1948       1 280.4892 261.63 295.31
## 2   1948       2 259.0500 242.52 278.06
## 3   1948       3 298.8500 298.23 299.76
## 4   1948       4 289.2542 280.16 298.76
## 5   1948       5 294.4108 283.70 305.17
## 6   1948       6 293.9608 283.88 299.54
## 7   1948       7 281.7508 266.06 294.78
## 8   1948       8 280.6858 263.90 294.06
## 9   1948       9 278.8225 262.35 293.09
## 10  1948      10 284.6550 278.65 290.59
## # ... with 680 more rows
…
